1662395538724357384,189232
1662395539724675838,451992
1662395540724929302,452280
1662395541725237801,452560
1662395542725546369,452840
1662395543726023779,453040
1662395544726260190,453744
1662395545726510404,453944
1662395546726743687,454224
1662395547727002977,454504
1662395548727218505,454784
1662395549727731245,455064
1662395550728181843,455344
1662395551728705339,455624
1662395552729407104,455904
1662395553730022753,456184
1662395554730674201,456464
1662395555731337910,456744
1662395556731600751,457024
1662395557731915711,457304
1662395558732380893,457584
1662395559732744830,457864
1662395560733008212,458144
1662395561733519769,458424
1662395562734003662,458704
1662395563734267148,458984
1662395564734490177,459264
1662395565734743339,459544
1662395566735023137,459824
1662395567735277613,460104
1662395568735534969,460384
1662395569736025572,460664
1662395570736305427,15517024
1662395571736578086,32396072
1662395572736834325,51150136
1662395573737056748,72706208
1662395574737375168,93330688
1662395575737632037,114903280
1662395576737855071,135532920
1662395577738159418,156159024
1662395578738478592,176787984
1662395579738739541,197411304
1662395580870336201,217101928
1662395582310892071,221812904
1662395583311173085,243519448
1662395584348850996,255737152
1662395585391049685,280150408
1662395586430721734,288571744
1662395587443001866,315770040
1662395588515588340,320417440
1662395589517010337,326921920
1662395591789137752,331568744
1662395592789824794,340861896
1662395593790172454,340862176
1662395594790436661,340862456
1662395595790773697,340862736
1662395596791650459,340863016
1662395597792269590,340863296
1662395598793157975,340863576
1662395599793472167,340863856
1662395600794003087,340864136
1662395601794478102,340864416
1662395602794781423,340864696
1662395603795244054,340864976
1662395604795622902,340865256
1662395605796004134,340865536
1662395606796754232,340865816
1662395607822237878,340866096
1662395608822772901,340866376
1662395609823048274,340866656
1662395610823382433,340866936
1662395611823706447,340867216
1662405835373694785,187424
1662405836374382876,451656
1662405837374652637,452184
1662405838375129368,452464
1662405839375627165,452744
1662405840376484115,453024
1662405841376687732,453304
1662405842376909266,453584
1662405843377125078,453864
1662405844377306816,454144
1662405845377520807,454424
1662405846377730435,454624
1662405847377925105,455296
1662405848378106894,455576
1662405849378311129,455856
1662405850378701948,456136
1662405851378970543,456416
1662405852379399281,456696
1662405853379621616,456976
1662405854379879210,457256
1662405855380066120,457536
1662405856380449723,457816
1662405857380829397,458096
1662405858381045755,458376
1662405859381481485,458656
1662405860381873790,458936
1662405861382054667,3305688
1662405862382275473,30518552
1662405863382441460,51141864
1662405864382644861,73643336
1662405865382853885,98021176
1662405866383121431,120522736
1662405867383383207,143952696
1662405868383593213,167398424
1662405869383805162,190827376
1662405870384098097,213344848
1662405871384409988,234919640
1662405872384636779,261151520
1662405873384865213,278057208
1662405874461810893,294052072
1662405875847132731,312886648
1662405877010488446,326102304
1662405878096758314,337411840
1662405879139300653,338341376
1662405881345611561,344851176
1662406055041525195,187904
1662406056042204018,452600
1662406057042545692,453304
1662406058042769698,453584
1662406059043048767,453784
1662406060043235027,454064
1662406084422190490,249640
1662406085422386898,454208
1662406086422570597,454800
1662406087422791449,455336
1662406088423022287,455536
1662406089423204375,456496
1662406090423394695,12700496
1662406091423580147,43639776
1662406092423757431,74570224
1662406093424019202,101767896
1662406094424276190,128019200
1662406095424512177,154269880
1662406096424807961,180518224
1662406097425038356,204891968
1662406098425298002,229268104
1662406099425605748,251766144
1662406215037438680,190296
1662406216038316469,452048
1662406217038605107,452752
1662406218038879268,453048
1662406219039137889,21132520
1662406220039479057,42693008
1662406221039785432,63317984
1662406222039988380,84891904
1662406223040188751,105517248
1662406224040439321,123321192
1662406225040692658,139269000
1662406226040914062,154271984
1662406227041108805,170199848
1662406228041347336,186144600
1662409104087875046,191768
1662409105088177648,453000
1662409106088396729,453528
1662409107088745223,453808
1662409108089021942,454088
1662409109089273272,454368
1662409110089481808,454648
1662409111089754132,454928
1662409112090034303,455208
1662409113090265452,455408
1662409114090481907,456080
1662409115090680550,456360
1662409116090883953,456640
1662409117091112927,456840
1662409118091516189,457120
1662409119091750246,457400
1662409120092385520,457680
1662409121092596472,457960
1662409122092857155,458240
1662409123093060577,458520
1662409124093513620,458800
1662409125093894370,459080
1662409126094589993,459360
1662409127094823148,459640
1662409128095062377,459920
1662409129095303733,460200
1662409130095520874,12691336
1662409131095748551,28639960
1662409132095983937,43645864
1662409133096199565,59572792
1662409134096452452,75521192
1662409135101603376,90522480
1662409136101803414,106451800
1662409535838733515,193920
1662409536839030684,453104
1662409537839226225,454016
1662409538839467089,454312
1662409539839731507,18309144
1662409540839988754,34258744
1662409541840203549,50189040
1662409542840395691,65189832
1662409543840632750,81134408
1662409544840954091,97063952
1662409545841219582,112067112
1662409546841480195,128014376
1662409547841634078,143942624
1662409548898500602,152402960
1662409549962823389,157132152
1662409580996708048,190128
1662409581997093604,452712
1662409582997474062,453624
1662409583997965853,453904
1662409584998134946,17383312
1662409585998350672,32386256
1662409586998570221,48316568
1662409587998792375,68013656
1662409588999035082,95207472
1662409590019689720,126153632
1662409591032718448,156163608
1662409592035801008,185257416
1662409593036105525,212474176
1662409594158100410,236891856
1662409595182265215,257570752
1662409596200179293,269724648
1662409599740302752,287644704
1662409601252246825,312997800
1662409602642262951,339303520
1662409603686224475,347748384
1662409604825478967,382657216
1662409608999150670,385487448
1662409609999406503,397779616
1662409613052461892,405334432
1662409639791448598,408196336
1662409675065029657,190560
1662409676065245465,453808
1662409677065703504,454016
1662409678065965649,454264
1662409679066211218,24881192
1662409680066566899,51134976
1662409681066801894,82086080
1662409682067058002,103639176
1662409683067262901,118639952
1662409684067477990,134571256
1662409685067691671,150518360
1662409686067888151,165517528
1662409687068061410,181448208
1662478552854378844,190528
1662478553854797283,453936
1662478554855114646,454848
1662478555855398749,455128
1662478556855646099,455328
1662478557855951399,455576
1662478558856264295,455856
1662478559856558458,456136
1662478560856788980,456416
1662478561857387611,456696
1662478562857937897,456976
1662478563858371534,457256
1662478564858631742,457536
1662478565858947387,457816
1662478566859377413,458096
1662478567859701756,458376
1662478568860243145,458656
1662478569860648889,458936
1662478570861214270,459216
1662478571861763643,459496
1662478572862731760,459776
1662478573862987005,460056
1662478574863229734,460344
1662478575863492770,460624
1662478576863848328,460904
1662478577864148837,461184
1662478578864867043,461464
1662478579865129878,461744
1662478580865633645,462024
1662478581865914118,462304
1662478582866396274,462584
1662478583866792861,462864
1662478584867108698,463144
1662478585867427733,463424
1662478586867749756,463704
1662478587868373682,3305376
1662478588868633447,3305656
1662478589868956264,3305936
1662478590869541873,5187208
1662478591869782738,5187488
1662478592870018909,5187768
1662478593870308074,7066784
1662478594870545473,7067064
1662478595870845504,7067584
1662478596871103547,8945352
1662478597871365835,8945872
1662478598871610720,8946152
1662478599871906154,10819560
1662478600872168330,10819840
1662478601872458638,10820120
1662478602898175808,12695728
1662478603898434310,12696008
1662478604898788129,12696288
1662478605899055613,12696568
1662478606899400465,12696848
1662478607899777151,12697128
1662478608900258164,12697408
1662478609900588867,12697688
1662478610901155337,12697968
1662478611901787861,12698248
1662478612902142549,12698528
1662478613902442818,12698808
1662478614902695443,12699088
1662478615902965584,12699368
1662478616903290746,12699648
1662478617903629723,12699928
1662478618903918542,12700208
1662478619904219640,12700488
1662478620904529733,12700768
1662478621904859160,12701048
1662478622905168459,12701328
1662478623905476419,12701608
1662478624905837164,12701888
1662478625906103404,12702168
1662478626906420544,12702448
1662478627906693881,12702728
1662478628906940318,12703008
1662478629907163974,12703288
1662478630907445026,12703568
1662478631907747926,12703848
1662478632908040476,12704128
1662478633908325541,12704408
1662478634908586919,12704688
1662478635908824398,12704968
1662478636909113687,12705248
1662478637909407014,12705528
1662478638909961131,12705808
1662478639910492798,12706088
1662478640910832700,12706368
1662478641911125129,12706648
1662478642911466229,12706928
1662478643911735830,12707208
1662478644912050395,12707488
1662478645912345754,12707768
1662478646912667985,12708048
1662478647913191857,12708328
1662478648914108548,12708608
1662478649914695790,12708888
1662478650915047496,12709168
1662478651915453571,12709448
1662478652915771642,12709728
1662478653916080538,12710008
1662478654916640216,12710288
1662478655916892700,12710568
1662478656917266223,12710848
1662478657917552564,12711128
1662478658917865885,12711408
1662478659918111500,12711688
1662478660918443719,12711968
1662478661918790061,12712248
1662478662919022394,12712528
1662478663919533759,12712808
1662478664919858211,12713088
1662478665920148038,12713368
1662478666934152758,12713648
1662478667934462780,12713928
1662478668934694247,12714208
1662478669934964115,12714488
1662478670935186564,12714768
1662478671935455651,12715048
1662478672935767878,12715328
1662478673936059491,12715608
1662478674936453173,12715888
1662478675936828540,12716168
1662478676937359737,12716448
1662478677938109673,12716728
1662478678938447190,12717008
1662478679938735309,12717288
1662478680939010687,12717568
1662478681939296431,12717848
1662478682939577668,12718128
1662478683939839033,12718408
1662478684940153772,12718688
1662478685940422590,12718968
1662478686940842742,12719248
1662478687941336510,12719528
1662478688941775550,12719808
1662478689942425970,12720088
1662478690942956441,12720368
1662478691943254958,12720648
1662478692943518777,12720928
1662478693943845095,12721208
1662478694944147324,12721488
1662478695944613016,12721768
1662478696945148322,12722048
1662478697945767414,12722328
1662478698946640529,12722608
1662478699946959906,12722888
1662478700947550684,12723168
1662478701947887975,12723448
1662478702948163102,12723728
1662478703948466000,12724008
1662478704949077650,12724288
1662478705949388739,12724568
1662478706949661745,12724848
1662478707949934861,12725128
1662478708950239576,12725408
1662478709950538181,12725688
1662478710950739552,12725968
1662478711951011060,12726248
1662478712951281130,12726528
1662478713951645423,12726808
1662478714952163012,12727088
1662478715952469044,12727368
1662478716952750377,12727648
1662478717953035916,12727928
1662478718953366509,12728208
1662478719953890816,12728488
1662478720954373377,12728768
1662478721954622997,12729048
1662478722955421680,12729328
1662478723955711112,12730880
1662478724955981134,12731400
1662478725956258277,12731920
1662478726956592815,14605408
1662478727956963799,14605688
1662478728957517585,14605968
1662478729958156412,16483624
1662478730958566890,16483904
1662478731958980638,16484184
1662478732959545409,18358888
1662478733959821632,18359408
1662478734960088408,18359928
1662478735960371851,20236632
1662478736960601082,20236912
1662478737960898858,20237192
1662478738961209244,22111408
1662478739961471558,22111928
1662478740961759955,22112208
1662478741962132042,23988672
1662478742962458284,23988952
1662478743962698317,23989232
1662478744963025037,25863448
1662478745963300529,25863728
1662478746963564593,25864008
1662478747963860453,25864288
1662478748964114856,25864568
1662478749964421439,25864848
1662478750964704647,25865128
1662478751964939758,25865408
1662478752965160427,25865688
1662478753965406175,25865968
1662478754965736916,25866248
1662478755966258578,25866528
1662478756966513916,25866808
1662478757966796840,25867088
1662478758967288415,25867368
1662478759967570013,25867648
1662478760967960961,25867928
1662478761968303583,25868208
1662478762968700526,25868488
1662478763969060242,25868768
1662478764969615261,25869048
1662478765970138356,25869328
1662478766970639299,25869608
1662478767971004898,25869888
1662478768971317967,25870168
1662478769971576271,25870448
1662478770971972537,25870728
1662478771972250768,25871008
1662478772972775821,25871288
1662478773973025999,25871568
1662478774973303941,25871848
1662478775973668580,25872128
1662478776974556981,25872408
1662478777974839715,25872688
1662478778975094273,25872968
1662478779975340275,25873248
1662478780975616544,25873528
1662478781976099259,25873808
1662478782976540871,25874088
1662478783976800882,25874368
1662478784977246175,25874648
1662478785977551411,25874928
1662478786977813582,25875208
1662478788018210201,25875488
1662478789018642602,25875768
1662478790018999321,25876048
1662478791019231964,25876328
1662478792019507494,25876608
1662478793019806846,25876888
1662478794020087841,25877168
1662478795020587203,25877448
1662478796021292010,25877728
1662478797021580632,25878008
1662478798021861784,25878288
1662478799022383501,25878568
1662478800022659065,25878848
1662478801023097750,25879128
1662478802023646692,25879408
1662478803023920984,25879688
1662478804024485207,25879968
1662478805024773379,25880248
1662478806025302317,25880528
1662478807025859453,25880808
1662478808026382707,25881088
1662478809026650504,25881368
1662478810026970168,25881648
1662478811027358456,25881928
1662478812027604060,25882208
1662478813027937627,25882488
1662478814028197570,25882768
1662478815028473408,25883048
1662478816028715840,25883328
1662478817029293711,25883608
1662478818029551236,25883888
1662478819029873673,25884168
1662478820030215490,25884448
1662478821030595888,25884728
1662478822030920875,25885008
1662478823031241913,25885288
1662478824031587773,25885568
1662478825031884151,25885848
1662478826032248433,25886128
1662478827032821327,25886408
1662478828033303187,25886688
1662478829034075079,25886968
1662478830034550699,25887248
1662478831035267817,25887528
1662478832035558496,25887808
1662478833035851007,25888088
1662478834036084318,25888368
1662478835036440617,25888648
1662478836036772349,25888928
1662478837037364773,25889208
1662478838037819221,25889488
1662478839038118792,25889768
1662478840038575631,25890048
1662478841039146023,25890328
1662478842039545681,25890608
1662478843040070203,25890888
1662478844040537604,25891168
1662478845040830846,25891448
1662478846041035820,25891728
1662478847041298890,25892008
1662478848041590030,27768008
1662478849041845411,27768528
1662478850042079418,27769048
1662478851042603778,29643104
1662478852042897195,29643384
1662478853043166930,29643664
1662478854043420452,29643944
1662478855043690023,29644224
1662478856044015445,29644504
1662478857044330238,29644784
1662478858044634329,29645064
1662478859044868013,29645344
1662478860045217388,29645624
1662478861045460459,29645904
1662478862045793104,29646184
1662478863046166648,29646464
1662478864046422918,29646744
1662478865046743409,29647024
1662478866047024698,29647304
1662478867047351070,29647584
1662478868047636909,29647864
1662478869048115316,29648144
1662478870048881399,29648424
1662478871049748009,29648704
1662478872050513048,29648984
1662478873050790133,29649264
1662478874051118439,29649544
1662478875051363746,29649824
1662478876051682058,29650104
1662478877052206685,29650384
1662478878052734831,29650664
1662478879053199386,29650944
1662478880053804261,29651224
1662478881054198196,29651504
1662478882054693202,29651784
1662478883054967909,29652064
1662478884055462400,29652344
1662478885055726115,29652624
1662478886055996831,29652904
1662478887056333487,29653184
1662478888056891180,29653464
1662478889057182895,29653744
1662478890057572321,29654024
1662478891057838085,29654304
1662478892058162312,29654584
1662478893058437666,29654864
1662478894058674761,29655144
1662478895058988822,29655424
1662478896059338365,29655704
1662478897059614240,29655984
1662478898060001574,29656264
1662478899060273129,29656544
1662478900060581698,29656824
1662478901061140619,29657104
1662478902061928454,29657384
1662478903062565030,29657664
1662478904062815289,29657944
1662478905063166873,29658224
1662478906063512587,29658504
1662478907063849707,29658784
1662478908064121458,29659064
1662478909064464361,29659344
1662478910064779533,29659624
1662478911065152307,29659904
1662478912065499513,29660184
1662478913066151528,29660464
1662478914066450036,29660744
1662478915066719550,29661024
1662478916067154204,29661304
1662478917067481371,29661584
1662478918067838409,29661864
1662478919068185025,29662144
1662478920068791123,29662424
1662478921069359002,29662704
1662478922069670015,29662984
1662478923070176051,29663264
1662478924070458038,29663544
1662478925070761791,29663824
1662478926071100435,29664104
1662478927071400647,29664384
1662478928071712144,29664664
1662478929072008809,29664944
1662478930072371718,29665224
1662478931072677614,29665504
1662478932072919024,29665784
1662478933073229606,29666064
1662478934073748679,29666344
1662478935074004098,29666624
1662478936074369819,29666904
1662478937074613855,29667184
1662478938074898149,29667464
1662478939075148885,29667744
1662478940075415156,29668024
1662478941075632435,29668304
1662478942075911895,29668584
1662478943076419182,29668864
1662478944076970422,29669144
1662478945077589359,29669424
1662478946078128361,29669704
1662478947078390429,29669984
1662478948078734017,29670264
1662478949079029024,29670544
1662478950079339346,29670824
1662478951079634885,29671104
1662478952080253007,29671384
1662478953080743563,29671664
1662478954081053896,29671944
1662478955081633108,29672224
1662478956082309406,29672504
1662478957082866304,29672784
1662478958083154218,29673064
1662478959083723437,29673344
1662478960084048181,29673624
1662478961084634955,29673904
1662478962084938983,29674184
1662478963085495821,29674464
1662478964086020686,29674744
1662478965086698286,29675024
1662478966087016809,29675304
1662478967087388902,29675584
1662478968087915824,29675864
1662478969088295333,29676144
1662478970088569607,29676424
1662478971089421831,29676704
1662478972089680470,29678256
1662478973089948469,29678776
1662478974090274152,29679296
1662478975090584822,29679576
1662478976090856944,29679856
1662478977091257280,29680136
1662478978091564875,29680416
1662478979091831265,29680696
1662478980092077400,29680976
1662478981092304816,29681256
1662478982092620008,29681536
1662478983093130730,29681816
1662478984093773782,29682096
1662478985094579402,29682376
1662478986094861884,29682656
1662478987095137025,29682936
1662478988095424657,29683216
1662478989095736442,29683496
1662478990096019791,29683776
1662478991096495872,29684056
1662478992096965166,29684336
1662478993097463986,29684616
1662478994097780874,29684896
1662478995098187554,29685176
1662478996099037248,29685456
1662478997099874146,29685736
1662478998100253820,29686016
1662478999100617694,29686296
1662479000101073521,29686576
1662479001101529887,29686856
1662479002101812695,29687136
1662479003102308686,29687416
1662479004102564145,29687696
1662479005102890814,29687976
1662479006103167247,29688256
1662479007103453433,29688536
1662479008103732961,29688816
1662479009103967979,29689096
1662479010104275180,29689376
1662479011104762248,29689656
1662479012105096980,29689936
1662479013105320367,29690216
1662479014105904701,29690496
1662479015106193813,29690776
1662479016106541487,29691056
1662479017106818317,29691336
1662479018107114320,29691616
1662479019107653386,29691896
1662479020107979631,29692176
1662479021108498447,29692456
1662479022108982940,29692736
1662479023109501547,29693016
1662479024110188420,29693296
1662479025110514141,29693576
1662479026110815173,29693856
1662479027111161420,29694136
1662479028111609098,29694416
1662479029112016373,29694696
1662479030112311313,29694976
1662479031112694274,29695256
1662479032113199685,29695536
1662479033113979784,29695816
1662479034114643217,29696096
1662479035114984806,29696376
1662479036115240246,29696656
1662479037115586426,29696936
1662479038115865379,29697216
1662479039116132276,29697496
1662479040116390327,29697776
1662479041116748962,29698056
1662479042142253528,29698336
1662479043142541818,29698616
1662479044142782501,29698896
1662479045143039895,29699176
1662479046143326709,29699456
1662479047143609352,29699736
1662479048143915059,29700016
1662479049144271833,29700296
1662479050144543635,29700576
1662479051145101918,29700856
1662479052145466144,29701136
1662479053145912861,29701416
1662479054146384104,29701696
1662479055146684685,29701976
1662479056147040100,29702256
1662479057147359284,29702536
1662479058147719473,29702816
1662479059148064939,29703096
1662479060148379968,29703376
1662479061149404184,29703656
1662479062149976018,29703936
1662479063150273199,29704216
1662479064150576045,29704496
1662479065150833577,29704776
1662479066151149778,29705056
1662479067151478905,29705336
1662479068151727309,29705616
1662479069152099607,29705896
1662479070152373513,29706176
1662479071152719702,29706456
1662479072152996061,29706736
1662479073153310343,29707016
1662479074153620858,29707296
1662479075153970274,29707576
1662479076154270946,29707856
1662479077154582444,29708136
1662479078154850715,29708416
1662479079155165217,29708696
1662479080155402063,29708976
1662479081155850718,29709256
1662479082156124922,29709536
1662479083156455133,29709816
1662479084157003158,29710096
1662479085157948892,29710376
1662479086158811101,29710656
1662479087159270284,29710936
1662479088159716055,29711216
1662479089160281799,29711496
1662479090160627205,29711776
1662479091160988948,29712056
1662479092161533722,29712336
1662479093162070877,29713648
1662479094162441886,29713928
1662479095162805973,29714208
1662479096163069768,29714488
1662479097163440401,29714768
1662479098163760674,29715048
1662479099164078212,29715328
1662479100164389385,29715608
1662479101164919970,29715888
1662479102165227349,29716168
1662479103165637513,29716448
1662479104165942702,29716728
1662479105166225880,29717008
1662479106166468050,29717288
1662479107166775642,29717568
1662479108167200753,29717848
1662479109167559784,29718128
1662479110167840863,29718408
1662479111168529277,29718688
1662479112169074861,29718968
1662479113169373698,29719248
1662479114169924136,29719528
1662479115170275593,29719808
1662479116170828369,29720088
1662479117171366879,29720368
1662479118171643276,29720648
1662479119171982016,29720928
1662479120172260467,29721208
1662479121172600423,29721488
1662479122173074024,29721768
1662479123173603331,29722048
1662479124174135339,29722328
1662479125174608244,29722608
1662479126175096560,29722888
1662479127175470391,29723168
1662479128175868430,29723448
1662479129176200730,29723728
1662479130176993153,29724008
1662479131177745953,29724288
1662479132178523101,29724568
1662479133178864167,29724848
1662479134179228881,29725128
1662479135179658515,29725408
1662479136180009695,29725688
1662479137180456382,29725968
1662479138181032796,29726248
1662479139181339684,29726528
1662479140181762889,29726808
1662479141182116019,29727088
1662479142182378542,29727368
1662479143182649833,29727648
1662479144182958036,29727928
1662479145183269281,29728208
1662479146183630775,29728488
1662479147183986441,29728768
1662479148184273145,29729048
1662479149184703539,29729328
1662479150185141721,29729608
1662479151185755087,29729888
1662479152186099271,29730168
1662479153186834781,29730448
1662479154187337492,29730728
1662479155187796311,29731008
1662479156188297274,29731288
1662479157188740866,29731568
1662479158189220037,29731848
1662479159189727314,29732128
1662479160190265771,29732408
1662479161190506828,29732688
1662479162191233836,29732968
1662479163192084694,29733248
1662479164193002066,29733528
1662479165193490326,29733808
1662479166194013674,29734088
1662479167194659962,29734368
1662479168195262422,29734648
1662479169195725239,29734928
1662479170196516034,29735208
1662479171196902926,29735488
1662479172197183553,29735768
1662479173197482785,29736048
1662479174197790842,29736328
1662479175198099554,29736608
1662479176198366111,29736888
1662479177198610625,29737168
1662479178198870249,29737448
1662479179199089044,29737728
1662479180199347320,29738008
1662479181199609951,29738288
1662479182199942511,29738568
1662479183200248836,29738848
1662479184200979159,29739128
1662479185201298729,29739408
1662479186201584101,29739688
1662479187201867539,29739968
1662479188202145273,29740248
1662479189202379450,29740528
1662479190202646400,29740808
1662479191202898147,29741088
1662479192203175265,29741368
1662479193203403656,29741648
1662479194203672572,29741928
1662479195203928447,29742208
1662479196204491481,29742488
1662479197204777143,29742768
1662479198205356416,29743048
1662479199205887239,29743328
1662479200206233503,29743608
1662479201206530130,29743888
1662479202206992355,29744168
1662479203207238174,29744448
1662479204207681018,29744728
1662479205207942651,29745008
1662479206208380637,29745288
1662479207208677010,29745568
1662479208209127665,29745848
1662479209209649568,29746128
1662479210210172114,29746408
1662479211211233391,29746688
1662479212211584655,29748000
1662479213211819795,29748520
1662479214212050826,29749040
1662479215212369654,29749320
1662479216212727952,29749600
1662479217213007975,29749880
1662479218213690546,29750160
1662479219214002716,29750440
1662479220214542913,29750720
1662479221214913208,29751000
1662479222215627039,29751280
1662479223216095056,29751560
1662479224216500090,29751840
1662479225216972246,29752120
1662479226217307112,29752400
1662479227217973221,29752680
1662479228218405316,29752960
1662479229218754035,29753240
1662479230219092495,29753520
1662479231219456942,29753800
1662479232219757635,29754080
1662479233220145770,29754360
1662479234220494385,29754640
1662479235220773937,29754920
1662479236221027515,29755200
1662479237221331242,29755480
1662479238221631552,29755760
1662479239222348512,29756040
1662479240222619431,29756320
1662479241223294638,29756600
1662479242223595734,29756880
1662479243223922605,29757160
1662479244224277552,29757440
1662479245224638509,29757720
1662479246225315969,29758000
1662479247225913189,29758280
1662479248226365570,29758560
1662479249226908881,29758840
1662479250227181018,29759120
1662479251227489611,29759400
1662479252227761122,29759680
1662479253228132570,29759960
1662479254228412254,29760240
1662479255228789290,29760520
1662479256229097049,29760800
1662479257229747705,29761080
1662479258230096876,29761360
1662479259230443462,29761640
1662479260230713227,29761920
1662479261231090749,29762200
1662479262231402623,29762480
1662479263231690123,29762760
1662479264232220931,29763040
1662479265232739096,29763320
1662479266233249088,29763600
1662479267233750139,29763880
1662479268234671114,29764160
1662479269235028294,29764440
1662479270235295033,29764720
1662479271235607301,29765000
1662479272236223494,29765280
1662479273236505863,29765560
1662479274236844097,29765840
1662479275237125689,29766120
1662479276237433045,29766400
1662479277237761976,29766680
1662479278238541976,29766960
1662479279238903649,29767240
1662479280239282565,29767520
1662479281239597784,29767800
1662479282239947286,29768080
1662479283240196285,29768360
1662479284240549405,29768640
1662479285240841829,29768920
1662479286241101980,29769200
1662479287241367223,29769480
1662479288241842875,29769760
1662479289242151679,29770040
1662479290242440920,29770320
1662479291242839097,29770600
1662479292243149690,29770880
1662479293243470610,29771160
1662479294243749549,29771440
1662479295244059345,29771720
1662479296244379398,29772000
1662479297244844770,29772280
1662479298245431020,29772560
1662479299246011463,29772840
1662479300246977463,29773120
1662479301247225461,29773400
1662479302247517234,29773680
1662479303247872967,29773960
1662479304248163460,29774240
1662479305248938399,29774520
1662479306249518202,29774800
1662479307249906989,29775080
1662479308250560235,29775360
1662479309251205367,29775640
1662479310251512545,29775920
1662479311251920973,29776200
1662479312252351526,29776480
1662479313252936964,29776760
1662479314253237103,29777040
1662479315253872935,29777320
1662479316254451276,29777600
1662479317254741595,29777880
1662479318255519430,29778160
1662479319256455501,29778440
1662479320257169405,29778720
1662479321257444230,29779000
1662479322257896354,29779280
1662479323258190281,29779560
1662479324258499068,29779840
1662479325258820129,29780120
1662479326259092218,29780400
1662479327259337892,29780680
1662479328259877562,29780960
1662479329260453740,29781240
1662479330261064260,29781520
1662479331262401347,29781800
1662479332262681433,29783352
1662479333263022329,29783872
1662479334263338484,29784392
1662479335263629271,29784672
1662479336263896922,29784952
1662479337264129008,29785232
1662479338264518487,29785512
1662479339264776374,29785792
1662479340265122166,29786072
1662479341265382319,29786352
1662479342265714383,29786632
1662479343266176604,29786912
1662479344266540474,29787192
1662479345266824430,29787472
1662479346267109972,29787752
1662479347267324259,29788032
1662479348267533637,29788312
1662479349267707935,29788592
1662479350267995208,29788872
1662479351268629689,29789152
1662479352268888425,29789432
1662479353269184293,29789712
1662479354269505140,29789992
1662479355269793770,29790272
1662479356270100535,29790552
1662479357270525092,29790832
1662479358270782157,29791112
1662479359271066716,29791392
1662479360271339727,29791672
1662479361271578495,29791952
1662479362271922205,29792232
1662479363272213653,29792512
1662479364272587833,29792792
1662479365272949140,29793072
1662479366273254622,29793352
1662479367273544715,29793632
1662479368273835622,29793912
1662479369274141729,29794192
1662479370274456191,29794472
1662479371274786341,29794752
1662479372275101311,29795032
1662479373275496289,29795312
1662479374275812255,29795592
1662479375276044391,29795872
1662479376276554522,29796152
1662479377276940596,29796432
1662479378277477143,29796712
1662479379277759037,29796992
1662479380278380872,29797272
1662479381278905396,29797552
1662479382279472285,29797832
1662479383280293493,29798112
1662479384280950277,29798392
1662479385281457442,29798672
1662479386281828747,29798952
1662479387282594882,29799232
1662479388283071445,29799512
1662479389283402718,29799792
1662479390283747651,29800072
1662479391283988498,29800352
1662479392284279879,29800632
1662479393284768311,29800912
1662479394285043291,29801192
1662479395285296174,29801472
1662479396285558804,29801752
1662479397286390089,29802032
1662479398286773339,29802312
1662479399287157327,29802592
1662479400287385478,29802872
1662479401287737002,29803152
1662479402288003643,29803432
1662479403288260825,29803712
1662479404288495210,29803992
1662479405288820772,29804272
1662479406289072275,29804552
1662479407289348330,29804832
1662479408289556472,29805112
1662479409289869687,29805392
1662479410290180566,29805672
1662479411290640097,29805952
1662479412291117405,29806232
1662479413291861319,29806512
1662479414292141203,29806792
1662479415292673446,29807072
1662479416293125692,29807352
1662479417293744818,29807632
1662479418294236527,29807912
1662479419294750901,29808192
1662479420295194567,29808472
1662479421295688412,29808752
1662479422295952250,29809032
1662479423296499664,29809312
1662479424296966172,29809592
1662479425297672887,29809872
1662479426298138141,29810152
1662479427298595818,29810432
1662479428298891090,29810712
1662479429299262659,29810992
1662479430299687620,29811272
1662479431300065545,29811552
1662479432300382608,29811832
1662479433300729317,29812112
1662479434301013766,29812392
1662479435301614263,29812672
1662479436301941451,29812952
1662479437302533916,29813232
1662479438302858590,29813512
1662479439303255230,29813792
1662479440303550989,29814072
1662479441303848109,29814352
1662479442304142469,29814632
1662479443304496155,29814912
1662479444304802524,29815192
1662479445305445054,29815472
1662479446305738082,29815752
1662479447306415597,29816032
1662479448307047541,29816312
1662479449307331938,29816592
1662479450308108721,29816872
1662479451309147845,29817152
1662479452309444002,29818704
1662479453309704156,29819224
1662479454310276795,29819744
1662479455310584782,29820264
1662479456310952093,29820544
1662479457311371604,29820824
1662479458311766704,29821104
1662479459312223082,29821384
1662479460312630956,29821664
1662479461313291672,29821944
1662479462313943270,29822224
1662479463314741558,29822504
1662479464315089566,29822784
1662479465315697889,29823064
1662479466315967810,29823344
1662479467316307111,29823624
1662479468316632056,29823904
1662479469317196922,29824184
1662479470317814406,29824464
1662479471318202644,29824744
1662479472318474075,29825024
1662479473318728076,29825304
1662479474319007807,29825584
1662479475319311382,29825864
1662479476319598714,29826144
1662479477319971907,29826424
1662479478320343522,29826704
1662479479320886059,29826984
1662479480321177559,29827264
1662479481321434519,29827544
1662479482321734318,29827824
1662479483322088549,29828104
1662479484322382469,29828384
1662479485322647855,29828664
1662479486323057064,29828944
1662479487323633701,29829224
1662479488324200520,29829504
1662479489324699485,29829784
1662479490325621902,29830064
1662479491326475138,29830344
1662479492326823058,29830624
1662479493327326115,29830904
1662479494327695251,29831184
1662479495328247878,29831464
1662479496328512383,29831744
1662479497328992015,29832024
1662479498329550659,29832304
1662479499329827258,29832584
1662479500330385817,29832864
1662479501330630414,29833144
1662479502330894103,29833424
1662479503331362861,29833704
1662479504331662081,29833984
1662479505332091574,29834264
1662479506332600917,29834544
1662479507332889670,29834824
1662479508333206664,29835104
1662479509333499589,29835384
1662479510333797779,29835664
1662479511334113803,29835944
1662479512334425313,29836224
1662479513334692082,29836504
1662479514335122926,29836784
1662479515335360973,29837064
1662479516335661341,29837344
1662479517336128227,29837624
1662479518336592344,29837904
1662479519337048804,29838184
1662479520337561787,29838464
1662479521338080732,29838744
1662479522338530701,29839024
1662479523339030141,29839304
1662479524339329939,29839584
1662479525339816088,29839864
1662479526340366862,29840144
1662479527340864303,29840424
1662479528341205822,29840704
1662479529341469705,29840984
1662479530342155361,29841264
1662479531342791666,29841544
1662479532343297817,29841824
1662479533343928023,29842104
1662479534344474099,29842384
1662479535345043175,29842664
1662479536345631829,29842944
1662479537346310736,29843224
1662479538347418607,29843504
1662479539348084431,29843784
1662479540348572542,29844064
1662479541348853468,29844344
1662479542349138048,29844624
1662479543349463575,29844904
1662479544349785355,29845184
1662479545350170150,29845464
1662479546350433659,29845744
1662479547350657454,29846024
1662479548350943776,29846304
1662479549351193734,29846584
1662479550351535341,29846864
1662479551352029216,29847144
1662479552352801416,29847424
1662479553353345059,29847704
1662483429252126431,244952
1662483430252428821,452528
1662483431252756918,452824
1662483432253110861,453272
1662483433253421929,453552
1662483434253820511,453832
1662483435254358567,454112
1662483436255082751,454392
1662483437255482118,3295696
1662483438256013068,3295976
1662483439256489829,3296256
1662483440256832363,5181768
1662483441257263529,5182048
1662483442257614875,5182328
1662483443257893314,7057296
1662483444258277914,7057816
1662483445258666081,7058096
1662483446258941534,8934928
1662483447259283129,8935224
1662483448259558523,8935504
1662483449259843001,10812128
1662483450260134329,10812408
1662483451260418329,10812688
1662483452260778180,12687552
1662483453261122392,12687832
1662483454261619977,12688112
1662483455261978169,14562328
1662483456262525700,14562608
1662483457263098867,14562888
1662483458263437799,16438432
1662483459263715278,16438952
1662483460263974045,16439232
1662483461264332757,18312848
1662483462264617166,18313128
1662483463265197908,18313408
1662483464265554751,20189536
1662483465265875842,20189816
1662483466266195401,20190096
1662483467266577891,22064504
1662483468266886915,22064800
1662483469267214661,22065080
1662483470268136885,23940104
1662483471268433982,23942064
1662483472268708178,23942344
1662483473269045723,25816456
1662483474269371330,25816736
1662483475269659020,25817016
1662483476269978003,27695520
1662483477270290776,27696040
1662483478270580647,27696320
1662483479270912077,29571496
1662483480271251614,29571776
1662483481271572439,29572056
1662483482271864495,31446744
1662483483272107250,31447024
1662483484272424319,31447304
1662483485272791817,33322000
1662483486273125448,33322280
1662483487273376394,33322560
1662483488273724353,35198920
1662483489274000102,35199440
1662483490274324326,35199960
1662483491274645202,37074480
1662483492274941290,37074760
1662483493275242830,37075040
1662483494275471463,38950984
1662483495275744589,38951264
1662483496275999353,38951544
1662483497276281777,40825856
1662483498276578733,40826392
1662483499276854673,40826912
1662483500277174896,42703208
1662483501277453848,42703488
1662483502277774290,42703768
1662483503278104934,42704048
1662483504278332639,42704328
1662483505278672022,42704608
1662483506278982008,42704888
1662483507279554315,42705168
1662483508279865358,44579776
1662483509280188279,44580056
1662483510280523776,44580336
1662483511280826313,46456568
1662483512281206377,46456848
1662483513281521565,46457128
1662483514281889277,48331440
1662483515282173885,48331720
1662483516282450327,48332000
1662483517282732221,50208344
1662483518282997987,50208624
1662483519283373126,50208904
1662483520283644838,52083216
1662483521283955804,52083496
1662483522299508232,52083776
1662483523299833106,53960392
1662483524300156099,53960672
1662483525300473230,53960952
1662483526300758519,55835168
1662483527301338605,55835448
1662483528301628443,55835728
1662483529301973808,57711864
1662483530302575139,57712144
1662483531303185624,57712424
1662483532303550488,59586640
1662483533303814579,59586920
1662483534304082306,59587200
1662483535304380068,61462744
1662483536304650738,61463264
1662483537305171437,61463784
1662483538305553789,63338576
1662483539305878039,63338856
1662483540306233023,63339136
1662483541306578234,65215272
1662483542307309103,65215552
1662483543307632184,65215832
1662483544307970844,67089272
1662483545308266278,67089552
1662483546308605087,67089832
1662483547309053059,67090112
1662483548309388455,67090392
1662483549310163563,67090672
1662483550310958022,67090952
1662483551311487934,67091232
1662483552311709020,67091512
1662483553311988288,68967536
1662483554312261484,68967816
1662483555312492082,68968096
1662483556312805234,70843080
1662483557313248642,70843600
1662483558313552585,70843880
1662483559313890754,72720640
1662483560314314131,72720920
1662483561314557396,72721200
1662483562314848646,74595192
1662483563315114409,74595712
1662483564315383738,74595992
1662483565315609841,76472256
1662483566315857249,76472536
1662483567316147054,76473056
1662483568316475484,78347288
1662483569316774168,78347824
1662483570317048621,78348104
1662483571317381883,80224896
1662483572317769764,80225176
1662483573318043602,80225456
1662483574318346707,82099448
1662483575318910945,82099968
1662483576319201208,82100248
1662483577319547836,83976448
1662483578319818273,83976968
1662483579320113298,83977488
1662483580320421806,85851576
1662483581320705874,85851856
1662483582320910609,85852376
1662483583321213892,87728720
1662483584321719853,87729000
1662483585321966574,87729280
1662483586322244518,89603272
1662483587322760059,89603552
1662483588323022507,89603832
1662483589323303256,91479792
1662483590323576538,91480072
1662483591323866445,91480352
1662483592324172628,93354344
1662483593324534199,93354864
1662483594324746387,93355144
1662483595325084291,95231680
1662483596325380294,95231960
1662483597325604507,95232240
1662483598326159344,97106232
1662483599326436503,97106512
1662483600326670716,97107032
1662483601326949001,98983232
1662483602327273942,98983512
1662483603327542039,98983792
1662483604327817613,100857784
1662483605328104714,100858064
1662483606328339090,100858344
1662483607328637583,102734448
1662483608328919039,102734968
1662483609329214188,102735488
1662483610329586513,104609928
1662483611330067233,104610240
1662483612330328102,104610520
1662483613330617819,106486544
1662483614331230827,106486824
1662483615331518247,106487104
1662483616331784370,108361096
1662483617332040511,108361376
1662483618332344425,108361896
1662483619359254697,110237952
1662483620359501072,110238232
1662483621359749685,110238512
1662483622360036295,112112696
1662483623360379339,112112976
1662483624360584874,112113256
1662483625360886371,113989248
1662483626361160984,113989528
1662483627361433716,113989808
1662483628361703308,115863896
1662483629362003424,115864176
1662483630362284059,115864456
1662483631362535505,117740544
1662483632362794567,117740856
1662483633363051258,117741376
1662483634363468025,118685840
1662483635364158217,119615160
1662483636364548733,119615440
1662483637364902795,121491784
1662483638365174312,121492064
1662483639365421667,121492344
1662483640365709953,123366336
1662483641366005645,123366616
1662483642366256714,123367136
1662483643366538306,125243432
1662483644366809915,125243712
1662483645367095216,125243992
1662483646367373467,126188136
1662483647367657588,127117216
1662483648367927186,127117496
1662483649368207823,128994160
1662483650368510184,128994440
1662483651368770505,128994720
1662483652369066796,130869496
1662483653369493901,130869776
1662483654369846351,130870056
1662483655370140699,132745952
1662483656370489804,132746232
1662483657370764254,132746512
1662483658371287965,132746792
1662483659371569756,132747072
1662483660371811812,132747352
1662483661372061065,132747632
1662483662372391335,132747912
1662483663372666366,132748192
1662483664372976181,132748472
1662483665373271193,132748752
1662483666373532756,132749032
1662483667373803890,132749312
1662483668374396708,134623864
1662483669374639355,134624384
1662483670374917973,134624904
1662483671375471203,136499656
1662483672375720914,136499936
1662483673375985854,136500216
1662483674376321615,138374432
1662483675376580276,138374712
1662483676376829024,138375232
1662483677377105921,140251576
1662483678377365361,140252096
1662483679377618868,140252616
1662483680377877198,142127520
1662483681378441079,142128040
1662483682378746906,142128320
1662483683379318756,142128840
1662483684379619352,142129120
1662483685379931895,142129400
1662483686380239343,142129680
1662483687380579409,142129960
1662483688380866261,142130240
1662483689381693463,142130520
1662483690381964189,142130800
1662483691382500658,142131080
1662483692382742966,142131360
1662483693383312754,142131640
1662483694383586357,142131920
1662483695383899982,142132200
1662483696384159344,142132480
1662483697384512016,142132760
1662483698384779137,142133040
1662483699385164779,142133320
1662483700385473951,142133600
1662483701385860578,142133880
1662483702386420060,142134160
1662483703387018167,142134440
1662483704387457952,142134720
1662483705387705681,142135000
1662483706388060199,142135280
1662483707388349978,142135560
1662483708388707226,142135840
1662483709388976270,142136120
1662483710389482561,142136400
1662483711389764322,142136680
1662483712390378592,142136960
1662483713390667972,142137240
1662483714390954422,142137520
1662483715391270278,142137800
1662483716391572588,142138080
1662483717391851436,142138360
1662483718392181758,142138640
1662483719392868963,142138920
1662483720393190283,142139200
1662483721393551623,142139480
1662483722393888733,142139760
1662483723394173466,142140040
1662483724394731135,142140320
1662483725395326800,142140600
1662483726395676144,142140880
1662483727395946015,142141160
1662483728396257443,142141440
1662483729396659386,142141720
1662483730397015378,142142000
1662483731397469427,142142280
1662483732397778703,142142560
1662483733398265653,142142840
1662483734398694151,142143120
1662483735399486515,142143400
1662483736400045269,142143680
1662483737400405683,142143960
1662483738400735580,142144240
1662483739401081823,142144520
1662483740401344610,142144800
1662483741401671723,142145080
1662483742401984452,142145360
1662483743402570605,142145640
1662483744403302586,142145920
1662483745403572024,142146200
1662483746403974788,142146480
1662483747404494676,142146760
1662483748404857708,142147040
1662483749405159214,142147320
1662483750405733237,142147600
1662483751405977342,142147880
1662483752406279486,142148160
1662483753406540846,142148440
1662483754406859409,142148720
1662483755407151295,142149000
1662483756407471330,142149280
1662483757407725580,142149560
1662483758408045062,142149840
1662483759408342059,142150120
1662483760408696467,142150400
1662483761408984041,142150680
1662483762409531910,142150960
1662483763409875502,142151240
1662483764410417650,142151520
1662483765410945275,142151800
1662483766411600778,142152080
1662483767411939144,142152360
1662483768412302654,142152640
1662483769412666308,142152920
1662483770412996860,142153200
1662483771413338590,142153480
1662483772413623543,142153760
1662483773413938390,142154040
1662483774414255615,142154320
1662483775414578639,142154600
1662483776415188846,142154880
1662483777415476747,142155160
1662483778415733153,142155440
1662483779416070995,142155720
1662483780416470578,142156000
1662483781416792572,142156280
1662483782417122181,142156560
1662483783417459615,142156840
1662483784417807249,142157120
1662483785418347503,142157400
1662483786418946634,142157680
1662483787419650736,142157960
1662483788420091966,142158240
1662483789420452464,142158520
1662483790420735583,142158800
1662483791421063332,142159080
1662483792421401840,142159360
1662483793421658568,142159640
1662483794421961044,142159920
1662483795422229580,142160200
1662483796422829158,142160480
1662483797423296184,142160760
1662483798423588684,142161040
1662483799423947953,142161320
1662483800424901838,142161696
1662483801425204961,142163248
1662483802425495307,142163768
1662483803426036240,142164288
1662483804426871967,142164568
1662483805427290476,142164848
1662483806427709058,142165368
1662483807428031404,142165648
1662483808428343417,142165928
1662483809428622328,142166208
1662483810428918213,142166488
1662483811429185955,142166768
1662483812429507058,142167048
1662483813429980762,142167328
1662483814430312416,142167608
1662483815430857012,142167888
1662483816431419141,142168168
1662483817431679706,142168448
1662483818431942439,142168728
1662483819432237440,142169008
1662483820432539219,142169288
1662483821432847215,142169568
1662483822433145926,142169848
1662483823433471388,142170128
1662483824434065874,142170408
1662483825434952710,142170688
1662483826435554813,142170968
1662483827435897396,142171248
1662483828436158479,142171528
1662483829436486681,142171808
1662483830436807831,142172088
1662483831437143720,142172368
1662483832437518232,142172648
1662483833437730860,142172928
1662483834437985254,142173208
1662483835438272754,142173488
1662483836438825368,142173768
1662483837439364435,142174048
1662483838439704811,142174328
1662483839439977307,142174608
1662483840440313289,144049328
1662483841440776590,144049608
1662483842441065785,144049888
1662483843441634339,145923880
1662483844441969004,145924160
1662483845442438741,145924440
1662483846442748479,147800672
1662483847443692850,147801192
1662483848444008738,147801712
1662483849444442727,149674720
1662483850444741720,149675000
1662483851445037222,149675280
1662483852445373723,151551240
1662483853475276884,151551760
1662483854475581054,151552040
1662483855475914140,153426032
1662483856476246880,153426312
1662483857476513624,153426592
1662483858476802928,155301312
1662483859477075055,155301592
1662483860477571159,155301872
1662483861478463953,157175960
1662483862479285513,157176240
1662483863479542634,157176520
1662483864479869178,159052880
1662483865480156195,159053400
1662483866480508863,159053680
1662483867480798120,160927976
1662483868481536376,160928256
1662483869481882627,160928536
1662483870482540433,162803256
1662483871483170027,162803536
1662483872483719867,162803816
1662483873484091129,162804096
1665506086183107288,157200
1665506087190330433,352896
1665506088190877338,353080
1665506089191474109,353264
1665506090192350932,353544
1665506091192798841,353824
1665506092193353811,354352
1665506093194020504,354632
1665506094194726714,354912
1665506095195338044,355192
1665506096195886845,355472
1665506097196528654,355752
1665506098197188361,356032
1665506099197684662,356312
1665506100198086038,356592
1665506101198860612,356872
1665506102199406720,357152
1666637438614742940,245760
1666638436239076879,206456
1666638437239852382,455464
1666638438240126300,455760
1666638439240413449,455960
1666638440240666683,456200
1666638441240948584,456480
1666638442241197968,456760
1666638443242244992,457040
1666638444242521257,457320
1666638445242809776,457600
1666638446243065709,457880
1666638447243328937,458160
1666638448243588915,458440
1666638449243853465,458720
1666638450244294959,459000
1666638451244732504,459280
1666638452244993938,459560
1666638453246254720,459840
1666638454246527464,460120
1666638455246830133,460400
1666638456247113769,460680
1666638457248132747,460960
1666638458248381179,461240
1666638459248658770,461520
1666638460249252295,461800
1666638461249518780,462080
1666638462250260023,462360
1666638463250505554,462640
1666638464250796728,462920
1666638465251130542,463200
1666638466251385538,463480
1666638467251648043,463760
1666638468251929232,464040
1666638469252337222,464320
1666638470252557440,464600
1666638471252976049,464880
1666638472253412993,465160
1666638473254310310,465440
1666638474254967962,3302992
1666638475255418357,3303272
1666638476255920474,3303552
1666638477257188037,5190680
1666638478258371058,5190960
1666638479258598317,5191240
1666638480259133551,7065960
1666638481259541081,7066240
1666638482259841720,7066800
1666638483260968988,8943464
1666638484261457513,8944024
1666638485261879446,8944304
1666638486262157473,10819632
1666638487262476258,10819952
1666638488262932254,10820512
1666638489263724723,12696744
1666638490263964496,12697304
1666638491264250406,12697864
1666638492265454440,14570776
1666638493266309511,14571056
1666638494266593588,14571336
1666638495267036738,16447392
1666638496267289118,16447672
1666638497267506410,16447952
1666638498267961278,18322296
1666638499268200444,18322576
1666638500268449361,18322856
1666638501268774448,20198880
1666638502269099298,20199440
1666638503270290731,20199752
1666638504270992049,22074112
1666638505271272678,22074672
1666638506271563687,22074952
1666638507271772186,23951504
1666638508272765690,23952064
1666638509272973997,23952344
1666638510273852977,25826680
1666638511274304494,25826960
1666638512274587106,25827240
1666638513275443870,27701800
1666638514275700031,27702080
1666638515276154730,27702360
1666638516277144678,29579600
1666638517278499949,29579880
1666638518278791981,29580160
1666638519279641403,31455848
1666638520280103523,31456128
1666638521280528603,31456408
1666638522280815929,33330800
1666638523281451537,33331112
1666638524282258237,33331392
1666638525282751110,35207640
1666638526283344115,35207920
1666638527283598151,35208200
1666638528284763052,37082368
1666638529285220215,37082928
1666638530286283450,37083208
1666638531286558349,38959208
1666638532287853208,38959488
1666638533288156700,38959768
1666638534288701197,40833696
1666638535289002201,40833976
1666638536290234535,40834256
1666638537290522367,42710448
1666638538290821074,42710760
1666638539291128141,42711040
1666638540291769664,44584256
1666638541292196331,44584536
1666638542292829293,44584816
1666638543293356354,46461400
1666638544293837438,46461680
1666638545294311869,46461960
1666638546294618308,48336600
1666638547295065182,48337160
1666638548295386879,48337440
1666638549295657293,50213632
1666638550296165781,50214192
1666638551296403192,50214752
1666638552296606851,52088680
1666638553297052426,52088960
1666638554298253609,52089240
1666638555299455681,53965584
1666638556299902460,53965864
1666638557300577746,53966144
1666638558300964356,53966424
1666638559301212172,53966704
1666638560302229215,53966984
1666638561302724170,53967264
1666638562303177691,53967544
1666638563303612618,53967824
1666638564303944092,53968104
1666638565304452880,53968384
1666638566304730124,53968664
1666638567305929133,53968944
1666638568306396387,53969224
1666638569306717166,53969504
1666638570307010692,53969784
1666638571307483837,53970064
1666638572307765809,53970344
1666638573309044974,53970624
1666638574309672427,53970904
1666638575309983269,53971184
1666638576310466608,53971464
1666638577310772743,53971744
1666638578311189704,53972024
1666638579311826515,53972304
1666638580312337456,53972584
1666638581312990234,53972864
1666638582314261800,53973144
1666638583314570997,53973424
1666638584315144394,53973704
1666638585315725671,53973984
1666638586316257905,53974264
1666638587316768267,53974544
1666638588317095210,53974824
1666638589318303341,53975104
1666638590318610146,53975384
1666638591319813853,53975664
1666638592320087110,53975944
1666638593320408966,53976224
1666638594321056624,53976504
1666638595321386280,53976784
1666638596322306370,53977064
1666638597322640195,53977344
1671231677694206990,184480
1671231678695133361,443712
1671231679695892806,444008
1671231680696698895,444288
1671231681697029021,444752
1671231682697343634,445032
1671231683697598525,445312
1671231684697875406,445592
1671231685698153187,445872
1671231686698373410,446152
1671231687698754115,446432
1671231688699200251,446712
1671231689700457488,446992
1671231690701215996,447272
1671231691701612309,447552
1671231692701946666,447832
1671231693702835816,448112
1671231694703392524,448392
1671231695703903198,448672
1671231696704399477,448952
1671231697704683088,449232
1671231698704992600,449512
1671231699705292745,449808
1671231700705642886,450088
1671231701705998956,450288
1671231702706424366,450600
1671231703706970730,450880
1671231704707331872,451160
1671231705707839249,451440
1671231706708545100,451720
1671231707708815636,452000
1671231708709610026,452280
1671231709710269060,452560
1671231710710779398,452840
1671231711711471729,453120
1671231712711841325,453400
1671231713712661515,453680
1671231714713097093,453960
1671231715713595029,454240
1671231716713896849,454520
1671231717714230508,454800
1671231718714546070,455080
1671231719714872240,455360
1671231720715396466,455640
1671231721715711096,455920
1671231722716484422,456200
1671231723716983343,456480
1671231724717291176,456760
1671231725717693493,457040
1671231726718151255,457320
1671231727718419326,457600
1671231728719232973,457880
1671231729720461246,458160
1671231730720795362,458440
1671231731739700302,458720
1671231732740392678,459000
1671231733740622571,459280
1671231734740937102,459560
1671231735741231163,459840
1671231736741532898,460136
1671231737741810881,460416
1671231738742112532,460696
1671231739742401046,460976
1671231740742650094,461256
1671231741742961430,461536
1671231742743285540,461816
1671231743743832150,462096
1671231744744881943,462376
1671231745745196883,462656
1671231746745503295,462936
1671231747745777643,463216
1671231748746492669,463496
1671231749746759392,463776
1671231750747025827,464056
1671231751747461616,464336
1671231752747893835,464616
1671231753748434089,464896
1671231754748763352,465176
1671231755750032013,465456
1671231756750445907,465736
1671231757750991651,466016
1671231758751293090,466296
1671231759752328951,466576
1671231760752996473,466856
1671231761753318216,467136
1671231762754187280,467416
1671231763754849335,467696
1671231764755197037,467976
1671231765755695167,468256
1671231766756562668,468536
1671231767756889958,468816
1671231768757577052,469096
1671231769758053645,469376
1671231770758379309,469656
1671231771758945901,469936
1671231772759818912,470216
1671231773760721511,470496
1671231774761595027,470776
1671231775761907419,471056
1671231776762664034,471336
1671231777763421459,471616
1671231778764731221,471896
1671231779765039168,472176
1671231780765569596,472456
1671231781766268520,472736
1671231782766537481,473016
1671231783767262748,473296
1671231784768087508,473576
1671231785768669966,473856
1671231786768973174,474136
1671231787769266716,474416
1671231788769511901,474696
1671231789770191881,474976
1671231790770897465,475256
1671231791771618596,475536
1671231792772418198,475816
1671231793772933314,476096
1671231794773194255,476376
1671231795791355448,476656
1671231796792105003,476936
1671231797792862702,477216
1671231798793550184,477496
1671231799794262920,477776
1671231800795200584,478056
1671231801795583341,478336
1671231802795892879,478616
1671231803796442220,478896
1671231804797137080,479176
1671231805798069718,479456
1671231806798849170,479736
1671231807799216120,480016
1671231808799504961,480296
1671231809799838961,480576
1671231810800610134,480856
1671231811801391336,481136
1671231812802122436,481416
1671231813802874671,481696
1671231814803657260,481976
1671231815804443942,482256
1671231816805252667,482536
1671231817805963729,482816
1671231818806458331,483096
1671231819806965687,483376
1671231820807234582,483656
1671231821808475135,483936
1671231822808772473,484216
1671231823809123491,484496
1671231824809514571,484776
1671231825809874895,485056
1671231826810442827,485336
1671231827810843746,485616
1671231828811372167,485896
1671231829811660871,486176
1671231830811958558,486456
1671231831812438153,486736
1671231832812672234,487016
1671231833812981856,487296
1671231834814239531,487576
1671231835814735295,487856
1671231836815224189,488136
1671231837816458181,488416
1671231838816729682,488696
1671231839816998085,488976
1671231840817249980,489256
1671231841817482993,489536
1671231842817765777,489816
1671231843818272652,490096
1671231844818485056,490376
1671231845819252942,490656
1671231846819552107,490936
1671231847820410735,491216
1671231848820721792,491496
1671231849821097218,491776
1671231850821819303,492056
1671231851822369907,492336
1671231852822656071,492616
1671231853822944726,492896
1671231854823877908,493176
1671231855824397054,493456
1671231856824671666,493736
1671231857824966787,494016
1671231858825236810,494296
1671231859825614503,494576
1671231860825962279,494856
1671231861826407038,495136
1671231862826689046,495416
1671231863826923958,495696
1671231864827238882,495976
1671231865828520925,496256
1671231866828802906,496536
1671231867829052457,496816
1671231868830016865,497096
1671231869830343122,497376
1671231870830670543,497656
1671231871831022593,497936
1671231872831333064,498216
1671231873832656539,498496
1671231874833075145,498776
1671231875833480877,499056
1671231876833778402,499336
1671231877834115085,499616
1671231878834849761,499896
1671231879835137369,500176
1671231880835799923,500456
1671231881836158580,500736
1671231882836830866,501016
1671231883837625836,501296
1671231884838383349,501576
1671231885838739538,501856
1671231886839463342,502136
1671231887839726388,502416
1671231888840464672,502696
1671231889840824331,502976
1671231890841146882,503256
1671231891841429461,503536
1671231892841716138,503816
1671231893842110974,504096
1671231894842392367,504376
1671231895843098922,504656
1671231896844012111,504936
1671231897844313969,505216
1671231898844860593,505496
1671231899845111911,505776
1671231900845432627,506056
1671231901845751435,506336
1671231902846231970,506616
1671231903846513927,506896
1671231904846918431,507176
1671231905847425787,507456
1671231906848312840,507736
1671231907849392837,508016
1671231908849921916,508296
1671231909850698415,508576
1671231910851240440,508856
1671231911851523476,509136
1671231912852494692,509416
1671231913852979103,509696
1671231914853719035,509976
1671231915854187547,510256
1671231916854505324,510536
1671231917854789555,510816
1671231918855287405,511096
1671231919855503010,511376
1671231920856437874,511656
1671231921856728374,511936
1671231922857058731,512216
1671231923871326159,512496
1671231924872421777,512776
1671231925872731536,513056
1671231926873000277,513336
1671231927873257893,513616
1671231928873538883,513896
1671231929873874257,514176
1671231930874484989,514456
1671231931874794689,514736
1671231932875483598,515016
1671231933875808691,515296
1671231934876116861,515576
1671231935876589692,515856
1671231936876897401,516136
1671231937877370121,516416
1671231938877924531,516696
1671231939878426891,516976
1671231940878980841,517256
1671231941879336425,517536
1671231942880096919,517816
1671231943881169367,518096
1671231944881549333,518376
1671231945881925507,518656
1671231946882642827,518936
1671231947882917342,519216
1671231948883932977,519496
1671231949884599253,519776
1671231950885010662,520056
1671231951885447892,520336
1671231952885987626,520616
1671231953886293377,520896
1671231954886993283,521176
1671231955887308910,521456
1671231956888420551,521736
1671231957888717001,522016
1671231958888992829,522296
1671231959889271780,522576
1671231960889538348,522856
1671231961890226659,523136
1671231962890591173,523416
1671231963890835123,523696
1671231964891402202,523976
1671231965892441657,524256
1671231966892772498,524536
1671231967893057854,524816
1671231968893440546,525096
1671231969893700720,525376
1671231970894004384,525656
1671231971894256557,525936
1671231972894896181,526216
1671231973895225697,526496
1671231974896402279,526776
1671231975896742162,527072
1671231976900940671,527352
1671231977901438981,527632
1671231978901761904,527912
1671231979902257871,528192
1671231980902732238,528472
1671231981902992248,528752
1671231982903507502,529032
1671231983903850024,529312
1671231984904216411,529592
1671231985904646962,529872
1671231986904956322,530152
1671231987905205601,530432
1671231988905521348,530712
1671231989905982204,530992
1671231990906394152,531272
1671231991907125948,531552
1671231992907841801,531832
1671231993908443307,532112
1671231994909156539,532392
1671231995909506794,532672
1671231996909776995,532952
1671231997910025317,533232
1671231998910284166,533512
1671231999911035716,533792
1671232000911348444,534072
1671232001911629097,534352
1671232002912432133,534632
1671232003912712749,534912
1671232004912986083,535192
1671232005913714405,535472
1671232006914016337,535752
1671232007914978026,536032
1671232008915351717,536312
1671232009916062924,536592
1671232010916393277,536872
1671232011916753993,537152
1671232012917473317,537432
1671232013917745719,537712
1671232014918130963,537992
1671232015918438459,538272
1671232016918910408,538552
1671232017919425850,538832
1671232018919977800,539112
1671232019920449905,539392
1671232020920722879,539672
1671232021920980052,539952
1671232022921308374,540232
1671232023921828038,540512
1671232024922298309,540792
1671232025922588514,541072
1671232026923342787,541352
1671232027923733248,541632
1671232028924412268,541912
1671232029924663922,542192
1671232030925133318,542472
1671232031925466020,542752
1671232032926161243,543032
1671232033927024832,543312
1671232034927599337,543592
1671232035928366512,543872
1671232036928847537,544152
1671232037929116092,544432
1671232038929565445,544712
1671232039929976089,544992
1671232040930426805,545272
1671232041931259805,545552
