1662395553425320586,194184
1662395554425867697,454240
1662395555426135108,454528
1662395556426453808,455064
1662395557426703541,455344
1662395558427025358,455624
1662395559427301587,455904
1662395560427592765,456184
1662395561427822419,456464
1662395562428472166,456744
1662395563428717156,457024
1662395564428983630,457304
1662395565429486382,457584
1662395566429806348,457864
1662395567430320684,458144
1662395568430563604,458424
1662395569430820712,458704
1662395570431049474,13628832
1662395571431295412,28625624
1662395572431543019,47369792
1662395573431808418,67985168
1662395574432066674,88602448
1662395575432820220,109219856
1662395576433016614,129838784
1662395577433211921,150455328
1662395578433456134,172018600
1662395579433730322,193567728
1662395580433975329,214181000
1662395582204303741,227315928
1662395583204598012,261037896
1662395584205458613,282598512
1662395585205677787,304139864
1662395586206002036,324753304
1662395587206266340,341617160
1662395588206512801,341617680
1662395589206764600,341617960
1662395590207016352,341618240
1662395591207333067,341618520
1662395592207627308,341618800
1662395593207916668,341619080
1662395594208578099,341619360
1662395595208871437,341619640
1662395596209191302,341619920
1662395597209504239,341620200
1662395598210049910,341620480
1662395599210366575,341620760
1662395600210883072,341621040
1662395601211153232,341621320
1662395602211776148,341621600
1662395603212548811,341621880
1662395604213319957,341622160
1662395605214097611,341622440
1662395606214398102,341622720
1662395607214682326,341623000
1662395608214949020,341623280
1662395609215224227,341623560
1662395610215467089,341623840
1662405847909083144,189936
1662405848909911237,451992
1662405849910148877,452480
1662405850910357910,452760
1662405851910566681,453048
1662405852910779543,453328
1662405853910966471,453608
1662405854911164692,453888
1662405855911357907,454168
1662405856911624634,454448
1662405857911849247,454728
1662405858912073154,455008
1662405859912284498,455288
1662405860912981916,455568
1662405861913202693,21122696
1662405862913473655,43616712
1662405863913784500,64232376
1662405864913994350,88600248
1662405865914304485,111093264
1662405866914477016,135457504
1662405867914678959,157947448
1662405868914882549,182314552
1662405869915186623,204804064
1662405870915440647,229166680
1662405871915667477,251657528
1662405872916322370,273221216
1662405873916514729,295707272
1662405874916722753,317251920
1662405875916934584,339740088
1662405876917128738,364104776
1662405877917328624,371601680
1662405878917551560,371601960
1662405879917764710,371602240
1662405880917968762,371602520
1662405881918221710,371602800
1662405882918513712,371603080
1662405883918710683,371603360
1662405884918953874,371603640
1662405885919186464,371603920
1662405886919445789,371604200
1662406057324107637,243896
1662406058324349248,452336
1662406059324532062,452928
1662406087956076610,193888
1662406088956313163,456592
1662406089956675037,456880
1662406090956861368,32368728
1662406091957076508,62362704
1662406092957276292,90478216
1662406093957487394,116719216
1662406094958611592,143902992
1662406095958830372,171070896
1662406096959024516,195435784
1662406097959191075,219799936
1662406098959367448,242293408
1662406216318944973,189888
1662406217319191015,452624
1662406218319479522,2338312
1662406219319687912,28620000
1662406220319834674,49250680
1662406221320041778,71730384
1662406222320218656,92349344
1662406223320416010,112963408
1662406224320652931,129832944
1662406225320892150,144826984
1662406226321152720,159820736
1662406227321358588,176688688
1662406228321600009,193560800
1662409115627988274,193256
1662409116628454993,454832
1662409117628714593,455048
1662409118629227466,455328
1662409119629702886,455608
1662409120630207026,455888
1662409121631063961,456168
1662409122631273687,456448
1662409123631566458,456728
1662409124631843071,457008
1662409125632236909,457288
1662409126632723910,457568
1662409127633226371,457848
1662409128633643050,458128
1662409129633829450,6127808
1662409130634045607,22997584
1662409131634217415,37994472
1662409132634407701,52990376
1662409133634639287,69861368
1662409134634818179,84857344
1662409135635015815,99850200
1662409536976506971,194920
1662409537976786919,454432
1662409538976964167,4244456
1662409539977141775,22995648
1662409540977352623,37990472
1662409541977552629,52985968
1662409542977755027,69855320
1662409543977917255,84850912
1662409544978115679,99846328
1662409545978324231,116714648
1662409546978552221,131708976
1662409547978775161,146704184
1662409548978944802,163574264
1662409549979194574,178566992
1662409582286187659,206896
1662409583286392246,454240
1662409584286590422,4245736
1662409585286886851,22996288
1662409586287125193,37992768
1662409587287345288,54859984
1662409588287587451,77352552
1662409589287907240,107341512
1662409590288126474,139202200
1662409591288322108,169187720
1662409592288537847,199175312
1662409593313662550,231048872
1662409594315396181,263840896
1662409595315629693,294754096
1662409596318016987,326610656
1662409597318290423,349098896
1662409598344100231,364090960
1662409599546216549,364091240
1662409600546392086,384699864
1662409601546595469,399691144
1662409602546808181,414682752
1662409603546997786,431549264
1662409604547211100,446539792
1662409605547436888,453100232
1662409606547649252,453100512
1662409607547831147,453100792
1662409608548037731,465272376
1662409610656084391,475580896
1662409612621974614,488699032
1662409613622395760,559901088
1662409614622605066,587064960
1662409615622802442,605803712
1662409616623033642,630161640
1662409617623237585,652646424
1662409618623458471,672322328
1662409619623736286,697615648
1662409620623914575,721974512
1662409626494021675,737902656
1662409627495728655,769761456
1662409629190582983,790367592
1662409630190802037,804415192
1662409631191005408,804415472
1662409632191208678,804415752
1662409633191434202,804416032
1662409634191638414,804416312
1662409635191835186,804416592
1662409636192077279,804416872
1662409637192301767,825025632
1662409638192516447,841891384
1662409639192700393,856881856
1662409640192939437,871871312
1662409676207374230,235072
1662409677207596326,453264
1662409678207771434,6122184
1662409679207943128,28617200
1662409680210558694,57673496
1662409681210815490,88589872
1662409682211035059,107335056
1662409683211236526,122332528
1662409684211397137,139199664
1662409685211639654,154194824
1662409686211799001,169189800
1662409687211973089,186059608
1662478567371980096,199840
1662478568372318259,452304
1662478569372636292,452832
1662478570372981406,453368
1662478571373312048,453648
1662478572373595392,453928
1662478573373915876,454208
1662478574374428613,454488
1662478575374670355,454768
1662478576374925282,455048
1662478577375225310,455328
1662478578375539500,455608
1662478579375821548,455888
1662478580376140526,456168
1662478581376434207,456448
1662478582376708736,456728
1662478583377383084,457008
1662478584377878906,457288
1662478585378166310,2342704
1662478586378441827,2342984
1662478587378946683,2343264
1662478588379283559,4248776
1662478589379554771,4249056
1662478590380062795,4249336
1662478591380477778,6126840
1662478592380756209,6127120
1662478593381211321,6127400
1662478594381772505,8003448
1662478595382302595,8003968
1662478596382623012,8004280
1662478597382921345,9880184
1662478598383515017,9880464
1662478599384024377,9880744
1662478600384290053,11754736
1662478601384736389,11755016
1662478602385204083,11755296
1662478603385455818,13629816
1662478604385985851,13630096
1662478605386310540,13630376
1662478606386596664,13630656
1662478607386869296,13630936
1662478608387117749,13631216
1662478609387375756,13631496
1662478610387617547,13631776
1662478611387888727,13632056
1662478612388166807,13632336
1662478613388424202,13632616
1662478614389101460,13632896
1662478615389371329,13633176
1662478616389707742,13633456
1662478617414213965,13633736
1662478618414581360,13634016
1662478619414856902,13634296
1662478620415151289,13634576
1662478621415392374,13634856
1662478622415657681,13635136
1662478623415879883,13635416
1662478624416191398,13635696
1662478625416763473,13635976
1662478626417104225,13636256
1662478627417722647,13636536
1662478628417996677,13636816
1662478629418335714,13637096
1662478630418684517,13637376
1662478631418933367,13637656
1662478632419226901,13637936
1662478633419493465,13638216
1662478634419748283,13638496
1662478635420041501,13638776
1662478636420271990,13639056
1662478637420554428,13639336
1662478638420836956,13639616
1662478639421390370,13639896
1662478640421686810,13640176
1662478641422275683,13640456
1662478642422649083,13640736
1662478643423076600,13641016
1662478644423408807,13641296
1662478645423732072,13641576
1662478646424154688,13641856
1662478647424513684,13642136
1662478648424928458,13642416
1662478649425516381,13642696
1662478650426036696,13642976
1662478651426510626,13643256
1662478652426796983,13643536
1662478653427175203,13643816
1662478654427531121,13644096
1662478655427792254,13644376
1662478656428087775,13644656
1662478657428528912,13644936
1662478658429216419,13645216
1662478659429932023,13645496
1662478660430683400,13645776
1662478661431040774,13646056
1662478662431372121,13646336
1662478663431705504,13646616
1662478664432060962,13646896
1662478665432761856,13647176
1662478666433537748,13647456
1662478667433893156,13647736
1662478668434281451,13648016
1662478669434848777,13648296
1662478670435173664,13648576
1662478671435520053,13648856
1662478672435903647,13649136
1662478673436252316,13649416
1662478674436611024,13649696
1662478675436960637,13649976
1662478676437471944,13650256
1662478677437985603,13650536
1662478678438232849,13650816
1662478679439096629,13651096
1662478680439368393,13651376
1662478681466167677,13651656
1662478682466423046,13651936
1662478683466718036,13652216
1662478684466975277,13652496
1662478685467263407,13652776
1662478686467514622,13653056
1662478687467988672,13653336
1662478688468306329,13653616
1662478689468725249,13653896
1662478690469001528,13654176
1662478691469272721,13654456
1662478692469837332,13654736
1662478693470137165,13655016
1662478694470493421,13655296
1662478695470792978,13655576
1662478696471390693,13655856
1662478697471749874,13656136
1662478698472197380,13656416
1662478699472615758,13656696
1662478700472956962,13656976
1662478701473275110,13657256
1662478702473767738,13657536
1662478703474028521,13657816
1662478704474416577,13658096
1662478705474666351,13658376
1662478706475025728,13658656
1662478707475467820,13658936
1662478708475762477,13659216
1662478709476260297,13659496
1662478710476575556,13659776
1662478711476806844,13660056
1662478712477150024,13660336
1662478713477626183,13660616
1662478714478504574,13660896
1662478715478832118,13661176
1662478716479196691,13661456
1662478721768279090,246952
1662478722768484899,452192
1662478723768958921,2337584
1662478724769618338,2338416
1662478725770303102,2338712
1662478726770534751,4247608
1662478727770820511,4247920
1662478728771026800,4248200
1662478729771297181,6124160
1662478730771553237,6124680
1662478731771828065,6124960
1662478732772088982,7998928
1662478733772704050,7999208
1662478734772950196,7999728
1662478735773216779,9875784
1662478736773746242,9876064
1662478737774269395,9876344
1662478738774478501,11748912
1662478739774679547,11749192
1662478740774942218,11749472
1662478741775327684,13627120
1662478742775578345,13627656
1662478743775793002,13627936
1662478744776112084,15501808
1662478745776387409,15502088
1662478840410746753,235872
1662478841411039766,455424
1662478842411291094,456096
1662478843411582508,2341768
1662478844412017078,2342048
1662478845412333145,2342328
1662478846412605496,6620048
1662478847412858989,11626328
1662478848413111988,11626848
1662478849413342427,16235536
1662478850413555332,20879560
1662478851414082961,20879840
1662478852414334186,25259648
1662479486879839512,192008
1662479487880519385,452344
1662479488880811618,453256
1662481214254254458,245640
1662483432179949163,314160
1662483433180299968,456288
1662483434180873288,2341968
1662483435181210905,2342264
1662483436181507742,2342544
1662483437181898728,4247464
1662483438182185030,4247744
1662483439182499484,4248264
1662483440182877915,6126120
1662483441183156133,6126400
1662483442183534715,6126680
1662483443183840042,8000784
1662483444184151380,8001064
1662483445184520760,8001344
1662483446184815278,9877640
1662483447185084730,9878160
1662483448185380586,9878680
1662483449185638315,11752392
1662483450185956670,11752672
1662483451186283342,11752952
1662483452186655554,13627472
1662483453186956256,13627752
1662483454187481916,13628032
1662483455187818247,15501912
1662483456188133702,15502432
1662483457188491834,15502952
1662483458188771542,17382240
1662483459189048112,17382760
1662483460189474912,17383040
1662483461189797168,19257024
1662483462190170482,19257304
1662483463190629144,19257584
1662483464190868517,21132104
1662483465191442426,21132384
1662483466191790409,21132664
1662483467192034896,23006280
1662483468192284137,23006816
1662483469192584576,23007336
1662483470192875801,24883096
1662483471193189520,24883376
1662483472193474121,24883656
1662483473193738334,26757272
1662483474194054024,26757552
1662483475215266691,26758072
1662483476215571846,28633976
1662483477215831401,28634496
1662483478216344059,28634776
1662483479216593707,30508728
1662483480216909079,30509248
1662483481217208463,30509768
1662483482217549336,32385432
1662483483217875479,32385712
1662483484218172155,32385992
1662483485218434335,34259224
1662483486218755954,34259504
1662483487219109564,34259784
1662483488219474283,36135160
1662483489219785860,36135440
1662483490220086826,36135720
1662483491220359583,38009336
1662483492220668102,38009872
1662483493220960354,38010152
1662483494221259036,39886472
1662483495221772269,39886752
1662483496222249051,39887032
1662483497222574776,41760648
1662483498223167571,41760928
1662483499223475916,41761208
1662483504531860022,203352
1662483505532228739,2337760
1662483506532520149,2338432
1662483507532858915,2338728
1662483508533156690,4242248
1662483509533420458,4242528
1662483510533685208,4242808
1662483511534034819,6120784
1662483512534354124,6121064
1662483513534689566,6121344
1662483514535069921,7994896
1662483515535365006,7995208
1662483516535662051,7995728
1662483517536069937,9873552
1662483518536387105,9873832
1662483519536659233,9874112
1662483520536994430,11748216
1662483521537305327,11748736
1662483522537606033,11749016
1662483523537907861,13627168
1662483524538185879,13627688
1662483525538483177,13627968
1662483526538754988,15503504
1662483527539036581,15503784
1662483528539348280,15504304
1662483529539643921,17380384
1662483530539896405,17380664
1662483531540180881,17380944
1662483532540436029,19254672
1662483533540717301,19255192
1662483534541009543,19255712
1662483535541366740,21130040
1662483536541642998,21130320
1662483537541938885,21130600
1662483538542247697,23004216
1662483539542525016,23004496
1662483540542832511,23004776
1662483541543505479,24880856
1662483542543806627,24881136
1662483543544088574,24881416
1662483544544434917,26754904
1662483547246240531,191272
1662483548246826719,453112
1662483549247106457,2338920
1662483550247398561,2339592
1662483551247757436,2339872
1662483552248025315,3292976
1662483553248338035,4247768
1662483554248625338,4248080
1662483555248876259,5195008
1662483556249243746,6123536
1662483557249544542,6123816
1662483558249797013,7069536
1662483559250037825,7998336
1662483560250687132,7998616
1662483561250974676,8945960
1662483562251243507,9875832
1662483563251628415,9876128
1662483564251905356,10820528
1662483565252174829,11749136
1662483566252470286,11749416
1662483567252750104,12698864
1662483568253007927,13627296
1662483569253370583,13627576
1662483570254129162,14573936
1662483571254401245,15502400
1662483572255031608,15502680
1662483573255241822,16449464
1662483574255495480,17377992
1662483575255826944,17378272
1662483576256087664,18323856
1662483577256318847,19252528
1662483578256616312,19252808
1662483579256851833,20199768
1662483580257115853,21129424
1662483581257714408,21129704
1662483582257995058,22074120
1662483583258304556,23002744
1662483584258897956,23003024
1662483585259197894,23951328
1662483586259416195,24879792
1662483587259663972,24880072
1662483588263283527,25824728
1662483589263553382,26754448
1662483590283284536,26754984
1662483591283499436,27701592
1662483592283740250,28630120
1662483593284017943,28630400
1662483594284331817,29577480
1662483595284661060,30505912
1662483596284914043,30506192
1662483597285182254,31453864
1662483598285442159,32382296
1662483599286140101,32382576
1662483600286421873,33326992
1662483601286724253,34255600
1662483602287357116,34255880
1662483603287602864,35203456
1662483604287882069,36131888
1662483605288425690,36132168
1662483606288708395,37076584
1662483607289014081,38006480
1662483608289335206,38006760
1662483609289607028,38953160
1662483610289872219,39881592
1662483611290398684,39881872
1662483612290664721,40827176
1662483613290936559,41755944
1662483614291278171,41756224
1662483615291659944,42702576
1662483616291934308,43632056
1662483617292250929,43632336
1662483618292515873,44576912
1662483619292803589,45505440
1662483620293119244,45505720
1662483621293379660,46454192
1662483622293639870,47382624
1662483623293929836,47382904
1662483624294199972,48327336
1662483625294468016,49256816
1662483626294797732,49257096
1662483627295089250,50203256
1662483628295390340,51131688
1662483629295724048,51131968
1662483630296025146,52077656
1662483631296336025,53006376
1662483632296619390,53006896
1662483633296889211,53954104
1662483634297150167,53954384
1662483635297424186,54882816
1662483636297669714,55826848
1662483637297933334,56755456
1662483638319298575,56755736
1662483639319584901,57702928
1662483640319854819,58631360
1662483641320156098,58631640
1662483642320404303,59576704
1662483643320701469,60505232
1662483644321062542,60505512
1662483645321292809,61452104
1662483646321555277,62380536
1662483647322204937,62380816
1662483648322494090,63326264
1662483649322764740,64254792
1662483650323435712,64255072
1662483651323700154,65202792
1662483652323936453,66131224
1662483653324229885,66131504
1662483654324490217,67076320
1662483655324826188,68004752
1662483656325131015,68005032
1662483660497485045,199368
1662483661498311451,452560
1662483662498612320,453232
1662483663498923458,2338920
1662483664499645186,2339216
1662483665499964433,2339496
1662483666500266503,5543240
1662483667500522343,12119024
1662483668500853264,17531752
1662483669501108692,20828704
1662483670501340657,27667664
1662483671501610340,32738016
1662483672501832186,36126136
1662483673502050124,42556504
1662483674502339582,47509704
1662483675502598802,50883408
1662483676502826040,58174120
1662483677503084919,63101520
1662483678503335979,66655000
1662483679503594305,74314200
1662483834905135712,193848
1662483835905395907,452736
1662483836905967099,453408
1662483837906699971,2339096
1662483838907024565,2339376
1662483839907510631,2339656
1662483840907814977,4246376
1662483841908106195,4246656
1662483842908423257,4246936
1662483843908778174,6122880
1662483844909079806,6123400
1662483845909416011,6123680
1662483846909707661,7996712
1662483847909977035,7996992
1662483848910278817,7997272
1662483849910618385,9875184
1662483850910937283,9875464
1662483851911252900,9875744
1662483852911656448,11749392
1662483853911980591,11749912
1662483854912304178,11750432
1662483855912693417,13624600
1662483856912993822,13624880
1662483857913524769,13625160
1662483858914073598,15499096
1662483859914352919,15499376
1662483860914988842,15499896
1662483861915502410,17376464
1662483862915772380,17376744
1662483863916070776,17377024
1662483864916447256,19250688
1662483865917017962,19250968
1662483866917372657,19251248
1662483867917678327,21127848
1662483868917959695,21128368
1662483869918283877,21128648
1662483870918591719,23002824
1662483871918918770,23003344
1665506087462770984,158456
1665506088470176132,353904
1665506089470568990,354088
1665506090471012422,354304
1665506091471616861,354584
1665506092472266741,354864
1665506093472748968,355144
1665506094473392680,355424
1665506095474212577,355704
1665506096474670156,355984
1665506097475322910,356264
1665506098475816980,356544
1665506099476289133,356824
1665506100476637379,357104
1666638373463489843,216224
1666638439550420638,205552
1666638440551537100,457752
1666638441551823297,458048
1666638442552317378,458328
1666638443552767558,458608
1666638444553246195,458888
1666638445553753429,459168
1666638446554279272,459448
1666638447554741520,459728
1666638448555233274,460008
1666638449555725199,460288
1666638450556186425,460568
1666638451556368661,460848
1666638452556894068,461128
1666638453557349107,461408
1666638454558259625,461688
1666638455558561353,461968
1666638456559007760,462248
1666638457559298730,462528
1666638458559790253,462808
1666638459560062084,463088
1666638460560422022,463288
1666638461560727795,463528
1666638462561268207,463808
1666638463562288265,464088
1666638464562593585,464368
1666638465562879803,464648
1666638466563281925,464944
1666638467563743939,465224
1666638468563953786,465504
1666638469564192514,465784
1666638470565057631,2348112
1666638471565391069,2348392
1666638472565750875,2348672
1666638473566275686,4255912
1666638474566636823,4256472
1666638475567072310,4256752
1666638476567418506,6132944
1666638477567734357,6133224
1666638478568040259,6133504
1666638479568522762,8009192
1666638480568956972,8009768
1666638481569456244,8010048
1666638482570232482,9886248
1666638483570717514,9886528
1666638484571160609,9886808
1666638485572300008,11758736
1666638486572754287,11759016
1666638487573086730,11759296
1666638488573819412,13634992
1666638489574123649,13635272
1666638490574375474,13635552
1666638491575549056,15509304
1666638492575842379,15509864
1666638493576112066,15510144
1666638494576552839,17386064
1666638495576799351,17386344
1666638496578015183,17386624
1666638497578203180,19260192
1666638498578443740,19260504
1666638499578665346,19260784
1666638500579865910,21136816
1666638501580297826,21137128
1666638502580723360,21137408
1666638503581641048,23011072
1666638504582344572,23011632
1666638505583042691,23011912
1666638506583359162,24888240
1666638507583682312,24888560
1666638508583913593,24888840
1666638509584382732,26762544
1666638510585139458,26762824
1666638511586275893,26763104
1666638512586627131,28639360
1666638513587073190,28639920
1666638514587293981,28640200
1666638515587718688,30513728
1666638516588296047,30514304
1666638517588623134,30514864
1666638518589593239,32390016
1666638519590024135,32390296
1666638520590208182,32390576
1666638521590944103,34264496
1666638522591412502,34264808
1666638523591630143,34265088
1666638524592275757,36141144
1666638525592727674,36141424
1666638526593126557,36141704
1666638527593425473,38015176
1666638528594684703,38015456
1666638529595007600,38015736
1666638530595871196,39891896
1666638531596299023,39892208
1666638532596546564,39892488
1666638533596881526,41766568
1666638534597692514,41767144
1666638535598263642,41767704
1666638536598895581,43644360
1666638537599221100,43644640
1666638538599540662,43644920
1666638539600182387,45516944
1666638540600555966,45517224
1666638541600843479,45517504
1666638542601845391,47393248
1666638543602302512,47393528
1666638544602564962,47393808
1666638545603708246,49267232
1666638546604146032,49267512
1666638547604409332,49267792
1666638548605467281,51143024
1666638549606051958,51143304
1666638550606364022,51143584
1666638551606650156,53017392
1666638552607174295,53017704
1666638553607462069,53017984
1666638554607771685,54894128
1666638555608879793,54894688
1666638556609112198,54894968
